Getting Started with serodynamics • serodynamics
…
Post-Processing Results

Extract and summarize the posterior estimates:

# Summarize parameter estimates
summary_stats <- post_summ(fitted_model)
print(summary_stats)
#> # A tibble: 25 × 11
#>    Iso_type Parameter Stratification       Mean       SD  Median  `2.5%` `25.0%`
#>    <chr>    <chr>     <chr>               <dbl>    <dbl>   <dbl>   <dbl>   <dbl>
#>  1 HlyE_IgA alpha     None              0.0132   9.15e-3 1.08e-2 3.87e-3 6.37e-3
#>  2 HlyE_IgA shape     None              1.47     1.01e-1 1.44e+0 1.34e+0 1.39e+0
#>  3 HlyE_IgA t1        None              2.02     4.93e-1 2.07e+0 1.15e+0 1.67e+0
#>  4 HlyE_IgA y0        None              2.13     3.68e-1 2.17e+0 1.46e+0 1.89e+0
#>  5 HlyE_IgA y1        None           1105.       1.55e+3 7.14e+2 4.82e+1 4.59e+2
#>  6 HlyE_IgG alpha     None              0.00956  8.14e-3 6.50e-3 1.77e-3 3.22e-3
#>  7 HlyE_IgG shape     None              1.36     9.20e-2 1.38e+0 1.25e+0 1.28e+0
#>  8 HlyE_IgG t1        None              1.94     4.89e-1 1.80e+0 1.35e+0 1.57e+0
#>  9 HlyE_IgG y0        None              2.85     7.70e-1 2.60e+0 2.01e+0 2.49e+0
#> 10 HlyE_IgG y1        None            833.       1.19e+3 2.95e+2 7.01e+1 2.42e+2
#> # ℹ 15 more rows
#> # ℹ 3 more variables: `50.0%` <dbl>, `75.0%` <dbl>, `97.5%` <dbl>
…
