…
curve_params <- jags_post |> postprocess_jags_output(
  ids = attr(prepped_data, "ids"),
  antigen_isos = attr(prepped_data, "antigens")
)

print(curve_params)
#> # A tibble: 400 × 8
#>    antigen_iso  iter chain    y0       y1    t1    alpha     r
#>    <fct>       <int> <int> <dbl>    <dbl> <dbl>    <dbl> <dbl>
#>  1 HlyE_IgA        1     1 2.72      9.61  3.28 0.00160   2.47
#>  2 HlyE_IgA        2     1 0.881 19020.    3.91 0.00272   1.44
#>  3 HlyE_IgA        3     1 1.38    805.    2.54 0.00225   2.18
#>  4 HlyE_IgA        4     1 0.821    38.4   2.41 0.00321   1.94
#>  5 HlyE_IgA        5     1 1.29     43.7   2.51 0.00431   2.15
#>  6 HlyE_IgA        6     1 1.28   2881.    1.81 0.00184   2.33
#>  7 HlyE_IgA        7     1 1.84    391.    2.52 0.00221   1.95
#>  8 HlyE_IgA        8     1 2.49    713.    2.51 0.00121   2.15
#>  9 HlyE_IgA        9     1 1.29     45.1   4.00 0.00709   1.90
#> 10 HlyE_IgA       10     1 1.80      3.17  1.91 0.000896  1.83
#> # ℹ 390 more rows
```
