…
- followup_variance:

  [integer](https://rdrr.io/r/base/integer.html)

## Value

a `case_data` object

## Examples

``` r
set.seed(1)
serocalculator::typhoid_curves_nostrat_100 |>
  sim_case_data(n = 100)
#> # A tibble: 3,020 × 11
#>    index_id visit_num timeindays  iter antigen_iso    y0     y1    t1     alpha
#>  * <chr>        <int>      <dbl> <int> <fct>       <dbl>  <dbl> <dbl>     <dbl>
#>  1 1                1          0    83 HlyE_IgA    1.33   50.8   2.60 0.00268  
#>  2 1                1          0    83 HlyE_IgG    3.49  265.    6.08 0.00153  
#>  3 1                1          0    83 LPS_IgA     0.878   4.69  3.06 0.000984 
#>  4 1                1          0    83 LPS_IgG     1.64  300.    2.35 0.000728 
#>  5 1                1          0    83 Vi_IgG      1.30  264.    8.02 0.0000546
#>  6 1                2          7    83 HlyE_IgA    1.33   50.8   2.60 0.00268  
#>  7 1                2          7    83 HlyE_IgG    3.49  265.    6.08 0.00153  
#>  8 1                2          7    83 LPS_IgA     0.878   4.69  3.06 0.000984 
#>  9 1                2          7    83 LPS_IgG     1.64  300.    2.35 0.000728 
#> 10 1                2          7    83 Vi_IgG      1.30  264.    8.02 0.0000546
#> # ℹ 3,010 more rows
#> # ℹ 2 more variables: r <dbl>, value <dbl>
```
