…
curve_params <- jags_post |> postprocess_jags_output(
  ids = attr(prepped_data, "ids"),
  antigen_isos = attr(prepped_data, "antigens")
)

print(curve_params)
#> # A tibble: 400 × 8
#>    antigen_iso  iter chain    y0     y1    t1    alpha     r
#>    <fct>       <int> <int> <dbl>  <dbl> <dbl>    <dbl> <dbl>
#>  1 HlyE_IgA        1     1 1.39   77.1  10.7  0.00202   1.50
#>  2 HlyE_IgA        2     1 0.772  23.3  10.4  0.000669  1.38
#>  3 HlyE_IgA        3     1 1.01   19.2   3.23 0.000132  1.52
#>  4 HlyE_IgA        4     1 1.13    1.39  7.88 0.000579  1.49
#>  5 HlyE_IgA        5     1 1.54   83.6   6.11 0.000722  1.51
#>  6 HlyE_IgA        6     1 1.19  420.    8.36 0.00330   1.32
#>  7 HlyE_IgA        7     1 1.03    5.44  7.98 0.000382  1.41
#>  8 HlyE_IgA        8     1 1.40    3.24 11.0  0.00104   1.69
#>  9 HlyE_IgA        9     1 1.01   12.4   7.19 0.000357  1.54
#> 10 HlyE_IgA       10     1 1.12    2.18  6.46 0.000973  1.51
#> # ℹ 390 more rows
```
