…
curve_params <- jags_post |> postprocess_jags_output(
  ids = attr(prepped_data, "ids"),
  antigen_isos = attr(prepped_data, "antigens")
)

print(curve_params)
#> # A tibble: 400 × 8
#>    antigen_iso  iter chain    y0     y1    t1    alpha     r
#>    <fct>       <int> <int> <dbl>  <dbl> <dbl>    <dbl> <dbl>
#>  1 HlyE_IgA        1     1 1.14   67.1   7.24 0.000538  1.40
#>  2 HlyE_IgA        2     1 0.841  17.5   6.86 0.00109   1.20
#>  3 HlyE_IgA        3     1 1.15   17.1   3.54 0.000182  1.38
#>  4 HlyE_IgA        4     1 1.04    2.18  7.87 0.000335  1.32
#>  5 HlyE_IgA        5     1 1.43   69.5   5.51 0.000804  1.32
#>  6 HlyE_IgA        6     1 1.05  368.    7.51 0.00713   1.21
#>  7 HlyE_IgA        7     1 0.791   6.90  6.60 0.000543  1.27
#>  8 HlyE_IgA        8     1 1.03    1.62  8.93 0.00161   1.50
#>  9 HlyE_IgA        9     1 0.720  16.4   7.66 0.00102   1.27
#> 10 HlyE_IgA       10     1 1.02    3.20  5.57 0.00173   1.31
#> # ℹ 390 more rows
```
